IPJ - Datajournalisme
…
La fonction `filter()` du package `{dplyr}` va nous permettre de sélectionner les observation suivant une ou plusieurs conditions.

La fonction `filter()` appelle un ou plusieurs tests portant sur une ou plusieurs variables :

```r
rne4 <- rne4 %>%  setNames(c("region_code","region_nom","dep_code","dep_nom","elu_nom","elu_prenom",
                   "sexe","date_naissance","profession_code","profession_nom","date_mandat",
                   "fonction","fonction_date"))

rne4 %>% filter(sexe == "F")
```

```
## # A tibble: 838 x 13
##    region_code region_nom dep_code dep_nom elu_nom elu_prenom sexe 
##    <chr>       <chr>      <chr>    <chr>   <chr>   <chr>      <chr>
##  1 01          Guadeloupe ZA       GUADEL… ARMOUG… Betty      F    
##  2 01          Guadeloupe ZA       GUADEL… BAILLET Patricia   F    
##  3 01          Guadeloupe ZA       GUADEL… BONDOT  Gersiane   F    
##  4 01          Guadeloupe ZA       GUADEL… CELIGNY Maguy      F    
##  5 01          Guadeloupe ZA       GUADEL… CEROL   Nita       F    
##  6 01          Guadeloupe ZA       GUADEL… CONVER… Ginette    F    
##  7 01          Guadeloupe ZA       GUADEL… DAGONIA Sylvie     F    
##  8 01          Guadeloupe ZA       GUADEL… DECAST… Monique, … F    
##  9 01          Guadeloupe ZA       GUADEL… DESTOU… Annick     F    
## 10 01          Guadeloupe ZA       GUADEL… FAITHF… Lucianne   F    
## # … with 828 more rows, and 6 more variables: date_naissance <chr>,
## #   profession_code <dbl>, profession_nom <chr>, date_mandat <chr>,
## #   fonction <chr>, fonction_date <chr>
```
…
---

### L'opérateur %in%

L'opérateur `%in%` permet de réaliser un test avec plusieurs possibilités fournies sous forme d'un vecteur.

Nous pouvons par exemple passer une liste de codes de régions pour en sélectionner plusieurs d'un coup :

```r
rne4 %>% filter(region_code %in% c("11","27","44"))
```

```
## # A tibble: 479 x 13
##    region_code region_nom dep_code dep_nom elu_nom elu_prenom sexe 
##    <chr>       <chr>      <chr>    <chr>   <chr>   <chr>      <chr>
##  1 11          Île-de-Fr… 75       PARIS   ANDROU… Mathilde   F    
##  2 11          Île-de-Fr… 75       PARIS   ANSEL   Maxence    F    
##  3 11          Île-de-Fr… 75       PARIS   BARIANI Didier     M    
##  4 11          Île-de-Fr… 75       PARIS   BAYOU   Julien     M    
##  5 11          Île-de-Fr… 75       PARIS   BENHAIM Frédéric   M    
##  6 11          Île-de-Fr… 75       PARIS   BERTHO… Florence   F    
##  7 11          Île-de-Fr… 75       PARIS   BOHBOT  Jack-Yves  M    
##  8 11          Île-de-Fr… 75       PARIS   BÜRKLI  Delphine   F    
##  9 11          Île-de-Fr… 75       PARIS   CAPLIEZ Stéphane   M    
## 10 11          Île-de-Fr… 75       PARIS   CARREY… Fanélie    F    
## # … with 469 more rows, and 6 more variables: date_naissance <chr>,
## #   profession_code <dbl>, profession_nom <chr>, date_mandat <chr>,
## #   fonction <chr>, fonction_date <chr>
```

---

### L'opérateur "!"

L'opérateur `!`, quand il précède un test, permet d'en inverser les critères et donc de "ne pas" sélectionner les observations qui correspondent au test.

Par exemple, nous pouvons inverser la sélectioner précédente en sélectionnant toutes les régions SAUF celles listées :

```r
rne4 %>% filter(!(region_code %in% c("11","27","44")))
```

```
## # A tibble: 1,268 x 13
##    region_code region_nom dep_code dep_nom elu_nom elu_prenom sexe 
##    <chr>       <chr>      <chr>    <chr>   <chr>   <chr>      <chr>
##  1 01          Guadeloupe ZA       GUADEL… ARMOUG… Betty      F    
##  2 01          Guadeloupe ZA       GUADEL… BAILLET Patricia   F    
##  3 01          Guadeloupe ZA       GUADEL… BAJAZET Clodomir   M    
##  4 01          Guadeloupe ZA       GUADEL… BAPTIS… Christian  M    
##  5 01          Guadeloupe ZA       GUADEL… BARDAIL Jean       M    
##  6 01          Guadeloupe ZA       GUADEL… BONDOT  Gersiane   F    
##  7 01          Guadeloupe ZA       GUADEL… BREDENT Georges    M    
##  8 01          Guadeloupe ZA       GUADEL… BRUDEY  Hilaire    M    
##  9 01          Guadeloupe ZA       GUADEL… CELIGNY Maguy      F    
## 10 01          Guadeloupe ZA       GUADEL… CEROL   Nita       F    
## # … with 1,258 more rows, and 6 more variables: date_naissance <chr>,
## #   profession_code <dbl>, profession_nom <chr>, date_mandat <chr>,
## #   fonction <chr>, fonction_date <chr>
```

---

### Exercice de filtre

Je vous demande de filtrer rne4 pour ne conserver que les élu·es dont le prénom comporte moins de 5 lettres.

--

```r
rne4 %>% filter(nchar(elu_prenom) < 5)
```

```
## # A tibble: 112 x 13
##    region_code region_nom dep_code dep_nom elu_nom elu_prenom sexe 
##    <chr>       <chr>      <chr>    <chr>   <chr>   <chr>      <chr>
##  1 01          Guadeloupe ZA       GUADEL… BARDAIL Jean       M    
##  2 01          Guadeloupe ZA       GUADEL… CEROL   Nita       F    
##  3 01          Guadeloupe ZA       GUADEL… CHALUS  Ary        M    
##  4 01          Guadeloupe ZA       GUADEL… LOSBAR  Guy        M    
##  5 04          La Réunion ZD       LA REU… BEDIER  Joé        M    
##  6 04          La Réunion ZD       LA REU… GAUTHI… Jack       M    
##  7 04          La Réunion ZD       LA REU… GUEZEL… Alin       M    
##  8 04          La Réunion ZD       LA REU… VIENNE  Axel       M    
##  9 11          Île-de-Fr… 75       PARIS   WEHRLI… Yann       M    
## 10 11          Île-de-Fr… 77       SEINE … CHAIN-… Anne       F    
## # … with 102 more rows, and 6 more variables: date_naissance <chr>,
## #   profession_code <dbl>, profession_nom <chr>, date_mandat <chr>,
## #   fonction <chr>, fonction_date <chr>
```
…
La fonction `select()`de `{dplyr}` permet de sélectionner les variables jugées utiles ou pertinentes.

Cela comporte deux intérêts principaux :
1. alléger votre jeu de données pour rendre les opérations plus rapides ;
2. simplifier la lecture de votre jeu de données.

La manière la plus simple d'utiliser `select()`consiste à lister les variables retenues par leur nom :

```r
rne4 %>% select(elu_nom, elu_prenom, sexe)
```

```
## # A tibble: 1,747 x 3
##    elu_nom  elu_prenom sexe 
##    <chr>    <chr>      <chr>
##  1 ARMOUGOM Betty      F    
##  2 BAILLET  Patricia   F    
##  3 BAJAZET  Clodomir   M    
##  4 BAPTISTE Christian  M    
##  5 BARDAIL  Jean       M    
##  6 BONDOT   Gersiane   F    
##  7 BREDENT  Georges    M    
##  8 BRUDEY   Hilaire    M    
##  9 CELIGNY  Maguy      F    
## 10 CEROL    Nita       F    
## # … with 1,737 more rows
```
…
---

En pratique, voilà ce que ça donne :

```r
rne4 %>% mutate(date_naissance = as.Date(date_naissance, format = "%d/%m/%Y"),
                age = as.numeric(difftime(today(), date_naissance, units = "weeks"))/52.25) %>% 
  dplyr::select(date_naissance, age)
```

```
## # A tibble: 1,747 x 2
##    date_naissance   age
##    <date>         <dbl>
##  1 1965-07-09      55.3
##  2 1970-06-17      50.4
##  3 1941-05-03      79.5
##  4 1962-06-18      58.4
##  5 1951-05-30      69.4
##  6 1963-02-09      57.7
##  7 1953-12-13      66.9
##  8 1960-03-27      60.6
##  9 1953-08-12      67.2
## 10 1963-11-28      56.9
## # … with 1,737 more rows
```
…
---

### group_by()

Seule, la fonction `group_by()` ne "produit" rien. Elle laisse tout juste apparaître les groupes constitués suivant la liste de variable fournie.

```r
rne4_c %>% group_by(sexe)
```

```
## # A tibble: 1,747 x 8
## # Groups:   sexe [2]
##    region_code region_nom elu_nom elu_prenom sexe  date_naissance date_mandat
##    <chr>       <chr>      <chr>   <chr>      <chr> <date>         <chr>      
##  1 01          Guadeloupe ARMOUG… Betty      F     1965-07-09     13/12/2015 
##  2 01          Guadeloupe BAILLET Patricia   F     1970-06-17     13/12/2015 
##  3 01          Guadeloupe BAJAZET Clodomir   M     1941-05-03     13/12/2015 
##  4 01          Guadeloupe BAPTIS… Christian  M     1962-06-18     13/12/2015 
##  5 01          Guadeloupe BARDAIL Jean       M     1951-05-30     13/12/2015 
##  6 01          Guadeloupe BONDOT  Gersiane   F     1963-02-09     13/12/2015 
##  7 01          Guadeloupe BREDENT Georges    M     1953-12-13     13/12/2015 
##  8 01          Guadeloupe BRUDEY  Hilaire    M     1960-03-27     13/12/2015 
##  9 01          Guadeloupe CELIGNY Maguy      F     1953-08-12     13/12/2015 
## 10 01          Guadeloupe CEROL   Nita       F     1963-11-28     13/12/2015 
## # … with 1,737 more rows, and 1 more variable: age <dbl>
```
…
---

### count() 1/2

Il peut être tentant d'utiliser la synthèse groupée pour calculer le nombre d'élément par groupe avec la fonction `n()`. Si nous voulions calculer le nombre d'homme et de femme par région, nous pourrions procéder ainsi  :

```r
rne4 %>% group_by(region_nom, sexe) %>% summarise(n = n())
```

```
## # A tibble: 28 x 3
## # Groups:   region_nom [14]
##    region_nom              sexe      n
##    <chr>                   <chr> <int>
##  1 Auvergne-Rhône-Alpes    F       100
##  2 Auvergne-Rhône-Alpes    M       104
##  3 Bourgogne-Franche-Comté F        47
##  4 Bourgogne-Franche-Comté M        54
##  5 Bretagne                F        40
##  6 Bretagne                M        43
##  7 Centre-Val de Loire     F        34
##  8 Centre-Val de Loire     M        43
##  9 Grand Est               F        81
## 10 Grand Est               M        88
## # … with 18 more rows
```

---

### count() 2/2

Une façon beaucoup plus simple et directe de le faire consiste à appeler la fonction `count()` en spécifiant pour argument les variables par lesquelles on souhaite grouper :

```r
rne4 %>% count(region_nom, sexe)
```

```
## # A tibble: 28 x 3
##    region_nom              sexe      n
##    <chr>                   <chr> <int>
##  1 Auvergne-Rhône-Alpes    F       100
##  2 Auvergne-Rhône-Alpes    M       104
##  3 Bourgogne-Franche-Comté F        47
##  4 Bourgogne-Franche-Comté M        54
##  5 Bretagne                F        40
##  6 Bretagne                M        43
##  7 Centre-Val de Loire     F        34
##  8 Centre-Val de Loire     M        43
##  9 Grand Est               F        81
## 10 Grand Est               M        88
## # … with 18 more rows
```
…
